%YAML 1.1
%TAG !u! tag:unity3d.com,2011:
--- !u!21 &2100000
Material:
  serializedVersion: 6
  m_ObjectHideFlags: 0
  m_CorrespondingSourceObject: {fileID: 0}
  m_PrefabInstance: {fileID: 0}
  m_PrefabAsset: {fileID: 0}
  m_Name: ScratchedWood
  m_Shader: {fileID: 4800000, guid: 41e8bd5085fc54284a34a416c25651b6, type: 3}
  m_ShaderKeywords: 
  m_LightmapFlags: 5
  m_EnableInstancingVariants: 0
  m_DoubleSidedGI: 0
  m_CustomRenderQueue: 2000
  stringTagMap: {}
  disabledShaderPasses: []
  m_SavedProperties:
    serializedVersion: 3
    m_TexEnvs:
    - _AmbientOcculsion:
        m_Texture: {fileID: 2800000, guid: b1004863d1d5346bb99e38c5c066d08f, type: 3}
        m_Scale: {x: 2, y: 2}
        m_Offset: {x: 0, y: 0}
    - _BumpMap:
        m_Texture: {fileID: 2800000, guid: dd84b2ea7b4974b2ab80ddd38e1ffacc, type: 3}
        m_Scale: {x: 2, y: 2}
        m_Offset: {x: 0, y: 0}
    - _DetailAlbedoMap:
        m_Texture: {fileID: 0}
        m_Scale: {x: 1, y: 1}
        m_Offset: {x: 0, y: 0}
    - _DetailMask:
        m_Texture: {fileID: 0}
        m_Scale: {x: 1, y: 1}
        m_Offset: {x: 0, y: 0}
    - _DetailNormalMap:
        m_Texture: {fileID: 0}
        m_Scale: {x: 1, y: 1}
        m_Offset: {x: 0, y: 0}
    - _EmissionMap:
        m_Texture: {fileID: 0}
        m_Scale: {x: 1, y: 1}
        m_Offset: {x: 0, y: 0}
    - _HeightMap:
        m_Texture: {fileID: 2800000, guid: 475b4198859964b54bc33ccf8dfa9e83, type: 3}
        m_Scale: {x: 2, y: 2}
        m_Offset: {x: 0, y: 0}
    - _MainTex:
        m_Texture: {fileID: 2800000, guid: abd73ba55dec24e1b8b0d0e61b4e2292, type: 3}
        m_Scale: {x: 0.43, y: 0.34}
        m_Offset: {x: 0, y: 0}
    - _MetallicGlossMap:
        m_Texture: {fileID: 0}
        m_Scale: {x: 1, y: 1}
        m_Offset: {x: 0, y: 0}
    - _OcclusionMap:
        m_Texture: {fileID: 0}
        m_Scale: {x: 1, y: 1}
        m_Offset: {x: 0, y: 0}
    - _Occulsion:
        m_Texture: {fileID: 2800000, guid: 30b7f28c851e44062812a198a1c67da7, type: 3}
        m_Scale: {x: 1, y: 1}
        m_Offset: {x: 0, y: 0}
    - _ParallaxMap:
        m_Texture: {fileID: 0}
        m_Scale: {x: 1, y: 1}
        m_Offset: {x: 0, y: 0}
    - _SpecularMap:
        m_Texture: {fileID: 2800000, guid: afec3483d6c084e6db523aeba1ec634a, type: 3}
        m_Scale: {x: 1, y: 1}
        m_Offset: {x: 0, y: 0}
    - _node_3846:
        m_Texture: {fileID: 2800000, guid: 3a5a96df060a5cf4a9cc0c59e13486b7, type: 3}
        m_Scale: {x: 1, y: 1}
        m_Offset: {x: 0, y: 0}
    m_Floats:
    - _BumpScale: 1
    - _Bumpiness: 0
    - _Cutoff: 0.5
    - _Desaturation: 0.53
    - _DetailNormalMapScale: 1
    - _DstBlend: 0
    - _Gloss: 0.8
    - _Glossiness: 0.295
    - _Metallic: 0
    - _Mode: 0
    - _OcclusionStrength: 1
    - _Occulsion: 0.78
    - _Parallax: 0.02
    - _Sharpness: 0.655
    - _Shine: 0.023
    - _Specularity: 0.012
    - _SrcBlend: 1
    - _TrueTiling: 1.06
    - _UVSec: 0
    - _ZWrite: 1
    - _node_3978: 0
    - _node_7910: 0
    m_Colors:
    - _Color: {r: 0.7352941, g: 0.7352941, b: 0.7352941, a: 1}
    - _EmissionColor: {r: 0, g: 0, b: 0, a: 1}
